Chapter 7 Documento Bookdown - Propuesta avance 7 | Propuesta para realizar el Pronóstico de contaminantes del aire; PM2.5 y CO
…
library(readxl)
datos_CentroAltoRendimiento_RMCAB <- read_excel("C:/Users/ALVARO ARIZA/Desktop/Maestria Javeriana/SERIES DE TIEMPO/ACTIVIDAD 7/datos_CentroAltoRendimiento_RMCAB.xlsx", 
    col_types = c("date", "numeric", "numeric"))
View(datos_CentroAltoRendimiento_RMCAB)

library(lubridate)  # Para manipular fechas y horas

datos_CentroAltoRendimiento_RMCAB %>%
        mutate_at(vars(DateTime), list(year=year, month=month, day=day))%>%
        select("month", "year", "CO")->datos_2019_CentroAltoRendimiento_CO

datos_2019_CentroAltoRendimiento_CO

## # A tibble: 85 × 3
##    month  year    CO
##    <dbl> <dbl> <dbl>
##  1     1  2012   2.3
##  2     2  2012   1.6
##  3     3  2012   0.7
##  4     4  2012   1.2
##  5     5  2012   1  
##  6     6  2012   0.9
##  7     7  2012   0.5
##  8     8  2012   0.5
##  9     9  2012   0.8
## 10    10  2012   1.2
## # ℹ 75 more rows

datos_CentroAltoRendimiento_RMCAB %>%
        mutate_at(vars(DateTime), list(year=year, month=month, day=day))%>%
        select("month", "year", "PM2.5")->datos_2019_CentroAltoRendimiento_PM2.5

datos_2019_CentroAltoRendimiento_PM2.5

## # A tibble: 85 × 3
##    month  year PM2.5
##    <dbl> <dbl> <dbl>
##  1     1  2012    14
##  2     2  2012    19
##  3     3  2012    13
##  4     4  2012     2
##  5     5  2012     2
##  6     6  2012     2
##  7     7  2012     6
##  8     8  2012     4
##  9     9  2012     1
## 10    10  2012     8
## # ℹ 75 more rows
…
